{
  "type": "object",
  "allOf": [
    {
      "title": "HAL Resource Object",
      "type": "object",
      "properties": {
        "_links": {
          "type": "object",
          "additionalProperties": {
            "allOf": [
              {
                "type": "object",
                "required": [
                  "href"
                ],
                "properties": {
                  "href": {
                    "type": "string"
                  },
                  "templated": {
                    "type": "boolean"
                  },
                  "type": {
                    "type": "string"
                  },
                  "deprecation": {
                    "type": "string"
                  },
                  "name": {
                    "type": "string"
                  },
                  "profile": {
                    "type": "string"
                  },
                  "title": {
                    "type": "string"
                  },
                  "hreflang": {
                    "type": "string"
                  }
                }
              },
              {
                "type": "array",
                "items": [
                  {
                    "type": "object",
                    "required": [
                      "href"
                    ],
                    "properties": {
                      "href": {
                        "type": "string"
                      },
                      "templated": {
                        "type": "boolean"
                      },
                      "type": {
                        "type": "string"
                      },
                      "deprecation": {
                        "type": "string"
                      },
                      "name": {
                        "type": "string"
                      },
                      "profile": {
                        "type": "string"
                      },
                      "title": {
                        "type": "string"
                      },
                      "hreflang": {
                        "type": "string"
                      }
                    }
                  }
                ]
              }
            ]
          },
          "properties": {
            "curies": {
              "allOf": [
                {
                  "title": "HAL Curies Link",
                  "allOf": [
                    {
                      "type": "object",
                      "properties": {
                        "templated": {
                          "enum": [
                            true
                          ]
                        }
                      },
                      "required": [
                        "templated"
                      ]
                    },
                    {
                      "type": "object",
                      "required": [
                        "href"
                      ],
                      "properties": {
                        "href": {
                          "type": "string"
                        },
                        "templated": {
                          "type": "boolean"
                        },
                        "type": {
                          "type": "string"
                        },
                        "deprecation": {
                          "type": "string"
                        },
                        "name": {
                          "type": "string"
                        },
                        "profile": {
                          "type": "string"
                        },
                        "title": {
                          "type": "string"
                        },
                        "hreflang": {
                          "type": "string"
                        }
                      }
                    }
                  ]
                },
                {
                  "type": "array",
                  "items": [
                    {
                      "title": "HAL Curies Link",
                      "allOf": [
                        {
                          "type": "object",
                          "properties": {
                            "templated": {
                              "enum": [
                                true
                              ]
                            }
                          },
                          "required": [
                            "templated"
                          ]
                        },
                        {
                          "type": "object",
                          "required": [
                            "href"
                          ],
                          "properties": {
                            "href": {
                              "type": "string"
                            },
                            "templated": {
                              "type": "boolean"
                            },
                            "type": {
                              "type": "string"
                            },
                            "deprecation": {
                              "type": "string"
                            },
                            "name": {
                              "type": "string"
                            },
                            "profile": {
                              "type": "string"
                            },
                            "title": {
                              "type": "string"
                            },
                            "hreflang": {
                              "type": "string"
                            }
                          }
                        }
                      ]
                    }
                  ]
                }
              ]
            }
          }
        },
        "_embedded": {
          "type": "object",
          "additionalProperties": true
        }
      }
    },
    {
      "type": "object",
      "properties": {
        "market": {
          "type": "string"
        },
        "language": {
          "type": "string"
        },
        "locale": {
          "type": "string"
        },
        "flag": {
          "type": "string"
        },
        "path": {
          "type": "object",
          "properties": {
            "domain": {
              "type": "string"
            },
            "append": {
              "type": "string"
            },
            "url": {
              "type": "string"
            }
          }
        },
        "supportedLocales": {
          "type": "array",
          "items": {
            "type": "string"
          }
        }
      },
      "example": {
        "market": "US",
        "languages": "en",
        "locale": "en_US",
        "flag": "//path/to/flag.png",
        "path": {
          "domain": "team.adidas.com",
          "append": "/us",
          "url": "https://team.adidas.com/us"
        },
        "supportedLocales": [
          "en_US",
          "es_US"
        ]
      }
    }
  ]
}